<?xml version="1.0" encoding="utf-8"?>
<!-- Generator: Adobe Illustrator 21.0.0, SVG Export Plug-In . SVG Version: 6.00 Build 0)  -->
<svg version="1.1" id="Layer_1" xmlns="http://www.w3.org/2000/svg" xmlns:xlink="http://www.w3.org/1999/xlink" x="0px" y="0px"
	 viewBox="0 0 85.4 50.5" style="enable-background:new 0 0 85.4 50.5;" xml:space="preserve">
<style type="text/css">
	.st0{fill:#FFFFFF;}
</style>
<g>
	<g>
		<g>
			<path class="st0" d="M85.4,50.6H0l26.9-36.9l7.4,8.9L49.4,0L85.4,50.6z M5.9,47.6h73.7L49.5,5.3L34.6,27.6L27,18.6L5.9,47.6z"/>
		</g>
		<g>
			<polygon class="st0" points="16.2,44 13.7,42.3 26.9,24.2 35.1,33.9 32.8,35.9 27,29.1 			"/>
		</g>
		<g>
			<polygon class="st0" points="57.2,27.5 49.5,15.9 43.2,25.9 40.7,24.3 49.4,10.4 59.7,25.8 			"/>
		</g>
	</g>
</g>
</svg>
